Orik Vancaskerkin,Human,Male,Pathfinder
Ven Vinder,Human,Male,Pathfinder
Shayliss,Human,Female,Pathfinder
Aldern Foxglove,Human,Male,Pathfinder
Lyrie Akenja,Human,Female,Pathfinder
Brodert Quink,Human,Male,Pathfinder
Ibor Thorn,Human,Male,Pathfinder
Banny Harker,Human,Male,Pathfinder
Katrine Vinder,Human,Female,Pathfinder
Sedge,Human,Male,Pathfinder
Wald,Human,Male,Pathfinder
Pidget Tergelson,Human,Male,Pathfinder
Erin Habe,Human,Male,Pathfinder
Grayst Sevilla,Human,Male,Pathfinder
Caizarlu Zerren,Human,Male,Pathfinder
Maester Grump,Human,Male,Pathfinder
Lonjiku Kaijitsu,Human,Male,Pathfinder
Jervas Stoot,Human,Male,Pathfinder
Nualia,Aasimar,Female,Pathfinder
Karzoug,Human,Male,Pathfinder
Ezakien Tobyn,Human,Male,Pathfinder
Delek Viskanta,Human,Male,Pathfinder
Erylium,Demon,Female,Quasit,Pathfinder
Malfeshnekor,Demon,Male,Barghest,Pathfinder
Cyrdak Drokkus,Human,Male,Pathfinder
Ameiko,Human,Female,Pathfinder
Alma Avertin,Human,Female,Pathfinder
Alergast Barett,Human,Male,Pathfinder
Amele,Human,Female,Pathfinder
Aeren,Human,Male,Pathfinder
Verah,Human,Male,Pathfinder
Gresgurt,Goblin,Male,Pathfinder
Tsuto,Human,Male,Pathfinder
Shalelu Andosana,Elf,Female,Pathfinder
Bethana Cowrin,Halfling,Female,Pathfinder
Daviren Hosk,Human,Male,Pathfinder
Niska Mvashti,Human,Female,Pathfinder
Rokuro,Human,Male,Pathfinder
Koruvus,Goblin,Male,Pathfinder
Gogmurt,Goblin,Male,Pathfinder
Tangletooth,Animal,Cat,Firepelt,Pathfinder
Ripnugget,Goblin,Male,Pathfinder
Shadowmist,Animal,Horse,Pathfinder
Stickfoot,Animal,Lizard,Gecko,Pathfinder
Bruthazmus,Goblin,Male,Bugbear,Pathfinder
Xanesha,Lamia,Female,Pathfinder
Lucrecia,Lamia,Female,Pathfinder
Vorel,Human,Male,Pathfinder
Kasanda,Human,Female,Pathfinder
Traver,Human,Male,Pathfinder
Cyralie,Human,Female,Pathfinder
Iesha,Human,Female,Pathfinder
Tarch Mortwell,Human,Male,Pathfinder
Lener Hask,Human,Male,Pathfinder
Gedwin Tabe,Human,Male,Pathfinder
Gortus,Tiefling,Male,Pathfinder
Gurnak,Tiefling,Male,Pathfinder
Horran Guffmin,Male,Male,Pathfinder
Lettie,Male,Female,Pathfinder
Rogors Craesby,Male,Male,Pathfinder
Haldmeer Grobaras,Male,Male,Pathfinder
Ironbriar,Elf,Male,Pathfinder
Kibb,Animal,Cat,Firepelt,Pathfinder
Rukus Graul,Giant,Male,Ogrekin,Pathfinder
Crowfood,Giant,Male,Ogrekin,Pathfinder
Lucky,Giant,Female,Ogrekin,Pathfinder
Maulgro,Giant,Male,Ogrekin,Pathfinder
Mammy,Giant,Female,Ogrekin,Pathfinder
Benk,Giant,Male,Ogrekin,Pathfinder
Hadge,Giant,Male,Ogrekin,Pathfinder
Kunkel,Giant,Male,Ogrekin,Pathfinder
Hucker,Giant,Male,Ogrekin,Pathfinder
Chuckles,Giant,Male,Ogrekin,Pathfinder
Drooler,Giant,Male,Ogrekin,Pathfinder
Muck,Giant,Male,Ogrekin,Pathfinder
Hograth,Giant,Male,Ogrekin,Pathfinder
Jeppo,Giant,Male,Ogrekin,Pathfinder
Sugar,Giant,Female,Ogrekin,Pathfinder
Jakardros Sovark,Human,Male,Pathfinder
Biggin,Animal,Spider,Pathfinder
Vale Temros,Human,Male,Pathfinder
Kaven Windstrike,Human,Male,Pathfinder
Karly-Lop Kreeg,Giant,Female,Ogre,Pathfinder
Jolly,Giant,Male,Ogre,Pathfinder
Minktuck,Giant,Male,Ogre,Pathfinder
Lorgus Fenker,Human,Male,Pathfinder
Gragavan,Giant,Male,Ogre,Pathfinder
Silas,Giant,Male,Ogre,Pathfinder
Jaagrath,Giant,Male,Ogre,Pathfinder
Dorella,Giant,Male,Ogre,Pathfinder
Harlock,Giant,Male,Ogre,Pathfinder
Malgus,Giant,Male,Ogre,Pathfinder
Gorger,Giant,Male,Ettin,Pathfinder
Chaw,Giant,Male,Ettin,Pathfinder
Grazuul,Giant,Male,Troll,Pathfinder
Avaxial,Devil,Male,Pit Fiend,Pathfinder
Myriana,Fey,Female,Nymph,Pathfinder
Lunderbud,Giant,Male,Hill,Pathfinder
Lamatar Bayden,Human,Male,Pathfinder
Briselda,Hag,Female,Annis,Pathfinder
Grelthaga,Hag,Female,Annis,Pathfinder
Larastine,Hag,Female,Annis,Pathfinder
Barl Breakbones,Giant,Male,Stone,Pathfinder
Longtooth,Dragon,Male,Red,Pathfinder
Teraktinus,Giant,Male,Stone,Pathfinder
Cinderma,Giant,Female,Taiga,Pathfinder
Doach,Giant,Male,Hill,Pathfinder
Papa Baeshk,Giant,Male,Ogre,Pathfinder
Halvara,Giant,Female,Stone,Pathfinder
Volrian,Giant,Male,Stone,Pathfinder
Zinderall,Giant,Male,Stone,Pathfinder
Oriandian,Giant,Male,Stone,Pathfinder
Drogart,Giant,Male,Stone,Pathfinder
Embers,Animal,Bear,Pathfinder
Isvig,Giant,Male,Frost,Pathfinder
Jaansk,Giant,Male,Frost,Pathfinder
Conna,Giant,Female,Stone,Pathfinder
Galenmir,Giant,Male,Stone,Pathfinder
Grumelda,Giant,Female,Stone,Pathfinder
Vandarrec,Giant,Male,Stone,Pathfinder
Enga,Kobold,Female,Pathfinder
Lokansir,Giant,Male,Hill,Pathfinder
Econtredor,Dragon,Male,Red,Pathfinder
Sulaminga,Dragon,Male,Red,Pathfinder
Hurek,Giant,Male,Troll,Pathfinder
Durek,Giant,Male,Troll,Pathfinder
Mokmurian,Giant,Male,Stone,Pathfinder
Xaliasa,Human,Male,Pathfinder
Arkrhyst,Dragon,Male,White,Pathfinder
Krune,Human,Male,Pathfinder
Belimarius,Human,Female,Pathfinder
Sorshen,Human,Female,Pathfinder
Xanderghul,Human,Male,Pathfinder
Alaznist,Human,Female,Pathfinder
Zutha,Human,Male,Pathfinder
Xyoddin Xerriock,Human,Male,Pathfinder
Azaven,Human,Male,Pathfinder
Ordikon,Human,Male,Pathfinder
Zuvuzeg,Demon,Male,Nalfeshnee,Pathfinder
Eryalla,Demon,Female,Alu-Demon,Pathfinder
Lelyrin,Demon,Female,Alu-Demon,Pathfinder
Voivod,Demon,Female,Alu-Demon,Pathfinder
Zevashala,Demon,Female,Alu-Demon,Pathfinder
Nelevetu Voan,Human,Male,Pathfinder
Delvahine,Demon,Female,Succubus,Pathfinder
Vraxeris,Human,Female,Pathfinder
Sobloch,Demon,Quasit,Pathfinder
Jordimandus,Human,Male,Pathfinder
Athroxis,Human,Female,Pathfinder
Silas Vekker,Dwarf,Male,Pathfinder
Karivek,Dwarf,Male,Pathfinder
Svevenka,Fey,Female,Nymph,Pathfinder
Bjormundal,Giant,Male,Frost,Pathfinder
Morgiv,Shulk,Male,Pathfinder
Gyukak,Ogre,Male,Pathfinder
Gamigin,Devil,Male,Ice,Pathfinder
Ghlorofaex,Dragon,Male,Blue,Pathfinder
Viorian Dekanti,Human,Female,Pathfinder
Ayruzi,Angel,Female,Planetar,Pathfinder
Khalib,Human,Male,Pathfinder
Ceoptra,Lamia,Female,Harridan,Pathfinder
Kendra Deverin,Human,Female,Pathfinder
Belor Hemlock,Human,Male,Pathfinder
Abstalar Zantus,Human,Male,Pathfinder
Titus Scarnetti,Human,Male,Pathfinder
Ethram Valdemar,Human,Male,Pathfinder
Naffer Vosk,Human,Male,Pathfinder
Garridan Viskalai,Human,Male,Pathfinder
Maver Kesk,Human,Male,Pathfinder
Pennae,Human,Female,Pathfinder
Hannah Velerin,Elf,Female,Pathfinder
Gorvi,Half-Orc,Male,Pathfinder
Volioker Briskalberd,Dwarf,Male,Pathfinder
Vachedi,Human,Male,Pathfinder
Savah Bevaniky,Human,Female,Pathfinder
Risa Magravi,Human,Female,Pathfinder
Besk,Human,Female,Pathfinder
Lanalee,Human,Female,Pathfinder
Vodger,Human,Male,Pathfinder
Larz Rovanky,Human,Male,Pathfinder
Das Korvut,Human,Male,Pathfinder
Aliver Podiker,Human,Male,Pathfinder
Nisk Tander,Human,Male,Pathfinder
Jesk Berinni,Human,Male,Pathfinder
Sabyl Sorn,Human,Female,Pathfinder
Arika,Human,Female,Pathfinder
Aneka,Human,Female,Pathfinder
Chask Haladan,Human,Male,Pathfinder
Aesrick Battlehorn,Dwarf,Male,Pathfinder
Solsta,Human,Female,Pathfinder
Ilsoari Gandethus,Human,Male,Pathfinder
Koya,Human,Female,Pathfinder
Olmur Danvakus,Halfling,Male,Pathfinder
Rynshinn Povalli,Half-Elf,Female,Pathfinder
Bilivar Wheen,Human,Male,Pathfinder
Vorah,Human,Female,Pathfinder
Courrin Whesterwill,Human,Male,Pathfinder
Jargie Quinn,Human,Male,Pathfinder
Turch Sterglus,Human,Male,Pathfinder
Chod Bevuk,Human,Male,Pathfinder
Gaven,Human,Male,Pathfinder
Wade,Human,Male,Pathfinder
Jasper Korvaski,Human,Male,Pathfinder
Hayliss,Human,Female,Pathfinder
Gressel Tenniwar,Human,Male,Pathfinder
Jubrayl Vhiski,Human,Male,Pathfinder
Kaye Tesarani,Human,Female,Pathfinder
Vorvashali Voon,Human,Male,Pathfinder
Belven,Human,Male,Pathfinder
Ethram,Human,Male,Pathfinder
Titus,Human,Male,Pathfinder
Alamon,Human,Male,Pathfinder
Amos,Human,Male,Pathfinder
Bevanaka,Human,Female,Pathfinder
Verrine Caiteil,Elf,Female,Pathfinder
Bayl Argentine,Human,Male,Pathfinder
Remeria Callinova,Human,Female,Pathfinder
Sabriyya Kalmeralm,Human,Female,Pathfinder
Baryl Argentine,Human,Male,Pathfinder
Jaster Frallino,Human,Male,Pathfinder
Cesten Orlandi,Human,Male,Pathfinder
Yads Kesker,Halfling,Male,Pathfinder
Berthandy,Halfling,Female,Pathfinder
Irontooth Jorveni,Human,Male,Pathfinder
Wenda Leenee,Human,Female,Pathfinder
Maelin Shreed,Human,Male,Pathfinder
Tillia Henkenson,Human,Female,Pathfinder
Razmus,Giant,Male,Hill,Pathfinder
Acaeria,Planet,Mass Effect
Acermos,Planet,Mass Effect
Adas,Planet,Mass Effect
Adek,Planet,Mass Effect
Aegis,Planet,Mass Effect
Aephus,Planet,Mass Effect
Aequitas,Planet,Mass Effect
Aganju,Planet,Mass Effect
Agebinium,Planet,Mass Effect
Ageko,Planet,Mass Effect
Agessia,Planet,Mass Effect
Agetoton,Planet,Mass Effect
Agnin,Planet,Mass Effect
Aigela,Planet,Mass Effect
Aitarus,Planet,Mass Effect
Aite,Planet,Mass Effect
Aitis,Planet,Mass Effect
Akraia,Planet,Mass Effect
Akuze,Planet,Mass Effect
Alchera,Planet,Mass Effect
Alformus,Planet,Mass Effect
Alingon,Planet,Mass Effect
Alko,Planet,Mass Effect
Alkonost,Planet,Mass Effect
Allusah,Planet,Mass Effect
Almarcrux,Planet,Mass Effect
Almos,Planet,Mass Effect
Alrumter,Planet,Mass Effect
Alsages,Planet,Mass Effect
Altaaya,Planet,Mass Effect
Altahe,Planet,Mass Effect
Altakiril,Planet,Mass Effect
Altanorch,Planet,Mass Effect
Amaranthine,Planet,Mass Effect
Amaterasu,Planet,Mass Effect
Ammut,Planet,Mass Effect
Anedia,Planet,Mass Effect
Anhur,Planet,Mass Effect
Anjea,Planet,Mass Effect
Ansuz,Planet,Mass Effect
Antibaar,Planet,Mass Effect
Antictra,Planet,Mass Effect
Antida,Planet,Mass Effect
Antigar,Planet,Mass Effect
Antinax,Planet,Mass Effect
Antiroprus,Planet,Mass Effect
Antirumgon,Planet,Mass Effect
Antitarra,Planet,Mass Effect
Aphras,Planet,Mass Effect
Apo,Planet,Mass Effect
Aratoht,Planet,Mass Effect
Arcadia,Planet,Mass Effect
Archanes,Planet,Mass Effect
Armeni,Planet,Mass Effect
Asiaq,Planet,Mass Effect
Asteria,Planet,Mass Effect
Atahil,Planet,Mass Effect
Atebolos,Planet,Mass Effect
Athame,Planet,Mass Effect
Atos Irn,Planet,Mass Effect
Avelosa,Planet,Mass Effect
Aventen,Planet,Mass Effect
Aya,Planet,Mass Effect
Azimir,Planet,Mass Effect
Azrahas,Planet,Mass Effect
Bakker,Planet,Mass Effect
Bannik,Planet,Mass Effect
Bast,Planet,Mass Effect
Bastzuda,Planet,Mass Effect
Beach Thunder,Planet,Mass Effect
Bekenstein,Planet,Mass Effect
Bekke,Planet,Mass Effect
Belan,Planet,Mass Effect
Benda,Planet,Mass Effect
Beness,Planet,Mass Effect
Benning,Planet,Mass Effect
Beregale,Planet,Mass Effect
Biloun,Planet,Mass Effect
Bindur,Planet,Mass Effect
Binthu,Planet,Mass Effect
Bleeding Ruby,Planet,Mass Effect
Boro,Planet,Mass Effect
Borr,Planet,Mass Effect
Bothros,Planet,Mass Effect
Bovis Tor,Planet,Mass Effect
Bres,Planet,Mass Effect
Caelax,Planet,Mass Effect
Camala,Planet,Mass Effect
Camaron,Planet,Mass Effect
Canalus,Planet,Mass Effect
Canctra,Planet,Mass Effect
Candavorni,Planet,Mass Effect
Canrum,Planet,Mass Effect
ek,Planet,Mass Effect
Capek,Planet,Mass Effect
Carborix,Planet,Mass Effect
Carcosa,Planet,Mass Effect
Casbin,Planet,Mass Effect
Cernunnos,Planet,Mass Effect
Chalkhos,Planet,Mass Effect
Charoum,Planet,Mass Effect
Chasca,Planet,Mass Effect
Cherk Sab,Planet,Mass Effect
Chofen,Planet,Mass Effect
Chohe,Planet,Mass Effect
Choitadix,Planet,Mass Effect
Cholis,Planet,Mass Effect
Chophise,Planet,Mass Effect
Circe,Planet,Mass Effect
Clobaka,Planet,Mass Effect
Clocrolis,Planet,Mass Effect
Clogon,Planet,Mass Effect
Clojiia,Planet,Mass Effect
Clomarthu,Planet,Mass Effect
Cloroplon,Planet,Mass Effect
Clotanca,Planet,Mass Effect
Clugon,Planet,Mass Effect
Corang,Planet,Mass Effect
Crick,Planet,Mass Effect
Cuervo,Planet,Mass Effect
Cyllene,Planet,Mass Effect
Cyone,Planet,Mass Effect
Daleon,Planet,Mass Effect
Damkianna,Planet,Mass Effect
Daratar,Planet,Mass Effect
Darwin,Planet,Mass Effect
Datriux,Planet,Mass Effect
Dekuuna,Planet,Mass Effect
Demeter,Planet,Mass Effect
Denesh,Planet,Mass Effect
Derneuca,Planet,Mass Effect
Dezda,Planet,Mass Effect
Digeris,Planet,Mass Effect
Ditivios,Planet,Mass Effect
Dobrovolski,Planet,Mass Effect
Doldit,Planet,Mass Effect
Dor,Planet,Mass Effect
Dorgal,Planet,Mass Effect
Doriae,Planet,Mass Effect
Dovar,Planet,Mass Effect
Doz Atab,Planet,Mass Effect
Dragel,Planet,Mass Effect
Dranen,Planet,Mass Effect
Dregir,Planet,Mass Effect
Dubraaci,Planet,Mass Effect
Duiononasa,Planet,Mass Effect
Dumah,Planet,Mass Effect
Durak,Planet,Mass Effect
Earth,Planet,Mass Effect
Echidna,Planet,Mass Effect
Eden Prime,Planet,Mass Effect
Edmos,Planet,Mass Effect
Edolus,Planet,Mass Effect
Efaja,Planet,Mass Effect
Egalic,Planet,Mass Effect
Ehstag,Planet,Mass Effect
Eingana,Planet,Mass Effect
Eirene,Planet,Mass Effect
Ejoda,Planet,Mass Effect
Ekuna,Planet,Mass Effect
Elatha,Planet,Mass Effect
Eletania,Planet,Mass Effect
Elohi,Planet,Mass Effect
Elysium,Planet,Mass Effect
Eos,Planet,Mass Effect
Epho,Planet,Mass Effect
Erinle,Planet,Mass Effect
Erros,Planet,Mass Effect
Erszbat,Planet,Mass Effect
Essenus,Planet,Mass Effect
Etamis,Planet,Mass Effect
Eunomia,Planet,Mass Effect
Euntanta,Planet,Mass Effect
Everodaan,Planet,Mass Effect
Ezka,Planet,Mass Effect
Farcrothu,Planet,Mass Effect
Fargeluse,Planet,Mass Effect
Faringor,Planet,Mass Effect
Farnuri,Planet,Mass Effect
Farrum,Planet,Mass Effect
Farthorl,Planet,Mass Effect
Fehl Prime,Planet,Mass Effect
Fei Xin,Planet,Mass Effect
Fen Odam,Planet,Mass Effect
Fen Sayat,Planet,Mass Effect
Fermi,Planet,Mass Effect
Feros,Planet,Mass Effect
Ferris Fields,Planet,Mass Effect
Fetvun,Planet,Mass Effect
Feynman,Planet,Mass Effect
Fiax,Planet,Mass Effect
First Land,Planet,Mass Effect
Fitful Current,Planet,Mass Effect
Flett,Planet,Mass Effect
Freedom's Progress,Planet,Mass Effect
Gaelon,Planet,Mass Effect
Gamayun,Planet,Mass Effect
Garan,Planet,Mass Effect
Garef,Planet,Mass Effect
Garvug,Planet,Mass Effect
Gei Hinnom,Planet,Mass Effect
Gellix,Planet,Mass Effect
Gesaimo,Planet,Mass Effect
Gestiir,Planet,Mass Effect
Geus,Planet,Mass Effect
Gilead,Planet,Mass Effect
Golden world,Planet,Mass Effect
Goliath,Planet,Mass Effect
Gong Zhen,Planet,Mass Effect
Gorgun,Planet,Mass Effect
Gotha,Planet,Mass Effect
Govok's Folly,Planet,Mass Effect
Gregas,Planet,Mass Effect
Gremar,Planet,Mass Effect
Grill,Planet,Mass Effect
Grogorna,Planet,Mass Effect
Gromar,Planet,Mass Effect
Grosalgen,Planet,Mass Effect
Haestrom,Planet,Mass Effect
Hagalaz,Planet,Mass Effect
Halegeuse,Planet,Mass Effect
Hanalei,Planet,Mass Effect
Haza,Planet,Mass Effect
Hebat,Planet,Mass Effect
Helluland,Planet,Mass Effect
Helyme,Planet,Mass Effect
Hesano,Planet,Mass Effect
Heshtok,Planet,Mass Effect
Hiba,Planet,Mass Effect
Hipaal,Planet,Mass Effect
Hito,Planet,Mass Effect
Horizon,Planet,Mass Effect
Huiton,Planet,Mass Effect
Hunidor,Planet,Mass Effect
Huningto,Planet,Mass Effect
Hunsalra,Planet,Mass Effect
Hybaro,Planet,Mass Effect
Hyetiana,Planet,Mass Effect
Ice Giant,Planet,Mass Effect
Ihaafor,Planet,Mass Effect
Ilem,Planet,Mass Effect
Illapa,Planet,Mass Effect
Illium,Planet,Mass Effect
Ilmnos,Planet,Mass Effect
Ilos,Planet,Mass Effect
Imaen,Planet,Mass Effect
Imaneya,Planet,Mass Effect
Imorkan,Planet,Mass Effect
Impera,Planet,Mass Effect
Insaaron,Planet,Mass Effect
Intai'sei,Planet,Mass Effect
Inti,Planet,Mass Effect
Invictus,Planet,Mass Effect
Iritum,Planet,Mass Effect
Irune,Planet,Mass Effect
Isa,Planet,Mass Effect
Isale,Planet,Mass Effect
Ishang,Planet,Mass Effect
Ishassara,Planet,Mass Effect
Island Wind,Planet,Mass Effect
Ithrone,Planet,Mass Effect
Jak Ser,Planet,Mass Effect
Janiri,Planet,Mass Effect
Jarfor,Planet,Mass Effect
Jartar,Planet,Mass Effect
Jegraph,Planet,Mass Effect
Joab,Planet,Mass Effect
Jontan,Planet,Mass Effect
Jonus,Planet,Mass Effect
Joppa,Planet,Mass Effect
Juncro,Planet,Mass Effect
Juntauma,Planet,Mass Effect
Junthor,Planet,Mass Effect
Jupiter,Planet,Mass Effect
Juxhi,Planet,Mass Effect
Kadara,Planet,Mass Effect
Kaddi,Planet,Mass Effect
Kahje,Planet,Mass Effect
Kailo,Planet,Mass Effect
Kamiiro No,Planet,Mass Effect
Kanin,Planet,Mass Effect
Karora,Planet,Mass Effect
Karumto,Planet,Mass Effect
Kashshaptu,Planet,Mass Effect
Katebolo,Planet,Mass Effect
Kaushus,Planet,Mass Effect
Keimowitz,Planet,Mass Effect
Kelim,Planet,Mass Effect
Kenaz,Planet,Mass Effect
Keph,Planet,Mass Effect
Ker,Planet,Mass Effect
Khar'shan,Planet,Mass Effect
Khonsu,Planet,Mass Effect
Kizrata,Planet,Mass Effect
Klencory,Planet,Mass Effect
Klendagon,Planet,Mass Effect
Klensal,Planet,Mass Effect
Klos,Planet,Mass Effect
Kobayashi,Planet,Mass Effect
Komarov,Planet,Mass Effect
Korar,Planet,Mass Effect
Korlus,Planet,Mass Effect
Korvath,Planet,Mass Effect
Kotkoborra,Planet,Mass Effect
Kralla,Planet,Mass Effect
Kruban,Planet,Mass Effect
Kurinth,Planet,Mass Effect
Laban,Planet,Mass Effect
Laconix,Planet,Mass Effect
Laena,Planet,Mass Effect
Lahu,Planet,Mass Effect
Lattesh,Planet,Mass Effect
Lemnia,Planet,Mass Effect
Lenuamund,Planet,Mass Effect
Lepini,Planet,Mass Effect
Lesuss,Planet,Mass Effect
Letapho,Planet,Mass Effect
Lihrat,Planet,Mass Effect
Linossa,Planet,Mass Effect
Lisir,Planet,Mass Effect
Locil,Planet,Mass Effect
Logan,Planet,Mass Effect
Logasiri,Planet,Mass Effect
Loki,Planet,Mass Effect
Lorek,Planet,Mass Effect
Loxia,Planet,Mass Effect
Lusia,Planet,Mass Effect
Lymetis,Planet,Mass Effect
Ma Huan,Planet,Mass Effect
Mae Raav,Planet,Mass Effect
Mae Shesa,Planet,Mass Effect
Maganlis,Planet,Mass Effect
Maidla,Planet,Mass Effect
Maisuth,Planet,Mass Effect
Maitrum,Planet,Mass Effect
Maji,Planet,Mass Effect
Makhaira,Planet,Mass Effect
Maklan,Planet,Mass Effect
Maldor,Planet,Mass Effect
Mantun,Planet,Mass Effect
Margoth,Planet,Mass Effect
Markland,Planet,Mass Effect
Mars,Planet,Mass Effect
Masiid,Planet,Mass Effect
Maskawa,Planet,Mass Effect
Matar,Planet,Mass Effect
Matol,Planet,Mass Effect
Mavigon,Planet,Mass Effect
Mawinor,Planet,Mass Effect
Medokos,Planet,Mass Effect
Melile,Planet,Mass Effect
Mendradym,Planet,Mass Effect
Mercury,Planet,Mass Effect
Meridian,Planet,Mass Effect
Metaponto,Planet,Mass Effect
Metgos,Planet,Mass Effect
Mindoir,Planet,Mass Effect
Mine,Planet,Mass Effect
Mingito,Planet,Mass Effect
Mizraim,Planet,Mass Effect
Mnemosyne,Planet,Mass Effect
Mocalaam,Planet,Mass Effect
Mola,Planet,Mass Effect
Momairus,Planet,Mass Effect
Morana,Planet,Mass Effect
Mornax Vinkaar,Planet,Mass Effect
Moros,Planet,Mass Effect
Mosiiba,Planet,Mass Effect
Mosiino,Planet,Mass Effect
Mosiives,Planet,Mass Effect
Murky Water,Planet,Mass Effect
Nadinoor,Planet,Mass Effect
Nalisin,Planet,Mass Effect
Namakli,Planet,Mass Effect
Nambu,Planet,Mass Effect
Nanuk,Planet,Mass Effect
Naskral,Planet,Mass Effect
Nataisa,Planet,Mass Effect
Nausicaa,Planet,Mass Effect
Nauti,Planet,Mass Effect
Naxell,Planet,Mass Effect
Ne'grale,Planet,Mass Effect
Neargas,Planet,Mass Effect
Nearog,Planet,Mass Effect
Nearrum,Planet,Mass Effect
Neidus,Planet,Mass Effect
Neith,Planet,Mass Effect
Nemata,Planet,Mass Effect
Nepheron,Planet,Mass Effect
Nephros,Planet,Mass Effect
Nepmos,Planet,Mass Effect
Nepneu,Planet,Mass Effect
Neptune,Planet,Mass Effect
Nepyma,Planet,Mass Effect
Netiquur,Planet,Mass Effect
Nevos,Planet,Mass Effect
New Canton,Planet,Mass Effect
Niacal,Planet,Mass Effect
Niagolon,Planet,Mass Effect
Nios,Planet,Mass Effect
Nirrus,Planet,Mass Effect
Nirvana,Planet,Mass Effect
Nodacrux,Planet,Mass Effect
Nonuel,Planet,Mass Effect
Norehsa,Planet,Mass Effect
Norgraqua,Planet,Mass Effect
Nossia,Planet,Mass Effect
Notanban,Planet,Mass Effect
Noveria,Planet,Mass Effect
Novolori,Planet,Mass Effect
Nutus,Planet,Mass Effect
Nuundri,Planet,Mass Effect
Obayro,Planet,Mass Effect
Odasst,Planet,Mass Effect
Olokun,Planet,Mass Effect
Oma Ker,Planet,Mass Effect
Ontaheter,Planet,Mass Effect
Ontamalca,Planet,Mass Effect
Ontarom,Planet,Mass Effect
Orunmila,Planet,Mass Effect
Osalri,Planet,Mass Effect
Ossqyu,Planet,Mass Effect
Pahhur,Planet,Mass Effect
Palaven,Planet,Mass Effect
Pania,Planet,Mass Effect
Paphos,Planet,Mass Effect
Parag,Planet,Mass Effect
Parasc,Planet,Mass Effect
Paravin,Planet,Mass Effect
Parnassus,Planet,Mass Effect
Partholon,Planet,Mass Effect
Pataiton,Planet,Mass Effect
Patajiri,Planet,Mass Effect
Patamalrus,Planet,Mass Effect
Patashi,Planet,Mass Effect
Patatanlis,Planet,Mass Effect
Patavig,Planet,Mass Effect
Patsayev,Planet,Mass Effect
Pauling,Planet,Mass Effect
Pele,Planet,Mass Effect
Phaidra,Planet,Mass Effect
Phaistos,Planet,Mass Effect
Pharos,Planet,Mass Effect
Phoros,Planet,Mass Effect
Phostaan,Planet,Mass Effect
Piares,Planet,Mass Effect
Pietas,Planet,Mass Effect
Planets,Planet,Mass Effect
Ploba,Planet,Mass Effect
Pluto,Planet,Mass Effect
Polissa,Planet,Mass Effect
Pollino,Planet,Mass Effect
Poloh Tem,Planet,Mass Effect
Pomal,Planet,Mass Effect
Ponolus,Planet,Mass Effect
Ponos,Planet,Mass Effect
Porolan,Planet,Mass Effect
Posbaar,Planet,Mass Effect
Prachonyi,Planet,Mass Effect
Pragia,Planet,Mass Effect
Pregel,Planet,Mass Effect
Prescyla,Planet,Mass Effect
Pressha,Planet,Mass Effect
Preying Mouth,Planet,Mass Effect
Promavess,Planet,Mass Effect
Pronoia,Planet,Mass Effect
Prospect,Planet,Mass Effect
Proteus,Planet,Mass Effect
Quaji,Planet,Mass Effect
Quana,Planet,Mass Effect
Quarem,Planet,Mass Effect
Quirezia,Planet,Mass Effect
Quodis,Planet,Mass Effect
Ra Madesya,Planet,Mass Effect
Ra Moorondi,Planet,Mass Effect
Rahere,Planet,Mass Effect
Raisaris,Planet,Mass Effect
Rakaelmo,Planet,Mass Effect
Rakhana,Planet,Mass Effect
Ramlat,Planet,Mass Effect
Rannoch,Planet,Mass Effect
Rayingri,Planet,Mass Effect
Raysha,Planet,Mass Effect
Red Qorayk,Planet,Mass Effect
Renshato,Planet,Mass Effect
Rescel,Planet,Mass Effect
Reyer,Planet,Mass Effect
Rihali,Planet,Mass Effect
Rilar,Planet,Mass Effect
Roha,Planet,Mass Effect
Ronhadin,Planet,Mass Effect
Rosh,Planet,Mass Effect
Rotesk,Planet,Mass Effect
Rothla,Planet,Mass Effect
Rough Tide,Planet,Mass Effect
Ruam,Planet,Mass Effect
Rustaka,Planet,Mass Effect
Sakata,Planet,Mass Effect
Salamis,Planet,Mass Effect
Saleas,Planet,Mass Effect
Sanctum,Planet,Mass Effect
Sangel,Planet,Mass Effect
Sansesyol,Planet,Mass Effect
Sanves,Planet,Mass Effect
Saradril,Planet,Mass Effect
Sarait,Planet,Mass Effect
Sarapai,Planet,Mass Effect
Sarhesen,Planet,Mass Effect
Saturn,Planet,Mass Effect
Sazgoth,Planet,Mass Effect
Sedele,Planet,Mass Effect
Sehtor,Planet,Mass Effect
Sekhmet,Planet,Mass Effect
Selvos,Planet,Mass Effect
Semrahet,Planet,Mass Effect
Serao,Planet,Mass Effect
Sesmose,Planet,Mass Effect
Shanxi,Planet,Mass Effect
Sharblu,Planet,Mass Effect
Sharjila,Planet,Mass Effect
Sharring,Planet,Mass Effect
Shastessia,Planet,Mass Effect
Shasu,Planet,Mass Effect
Shir,Planet,Mass Effect
Siano,Planet,Mass Effect
Sidon,Planet,Mass Effect
Siktin,Planet,Mass Effect
Silva,Planet,Mass Effect
Sineus,Planet,Mass Effect
Slekon,Planet,Mass Effect
Slohva,Planet,Mass Effect
Sobek,Planet,Mass Effect
Sogelrus,Planet,Mass Effect
Solad,Planet,Mass Effect
Solmarlon,Planet,Mass Effect
Solu Paolis,Planet,Mass Effect
Sonedma,Planet,Mass Effect
Sotera,Planet,Mass Effect
Spekilas,Planet,Mass Effect
Sthenia,Planet,Mass Effect
Suen,Planet,Mass Effect
Suiorna,Planet,Mass Effect
Supay,Planet,Mass Effect
Sur'Kesh,Planet,Mass Effect
Surtur,Planet,Mass Effect
Suuricco,Planet,Mass Effect
Svarog,Planet,Mass Effect
Syba,Planet,Mass Effect
Sybin,Planet,Mass Effect
Syided,Planet,Mass Effect
Sylsalto,Planet,Mass Effect
Synalus,Planet,Mass Effect
Sytau,Planet,Mass Effect
Taetrus,Planet,Mass Effect
Taitus,Planet,Mass Effect
Takkan,Planet,Mass Effect
Talaria,Planet,Mass Effect
Talis Fia,Planet,Mass Effect
Tamahera,Planet,Mass Effect
Tamgauta,Planet,Mass Effect
Tarith,Planet,Mass Effect
Tefnut,Planet,Mass Effect
Telluune,Planet,Mass Effect
Temerarus,Planet,Mass Effect
Tenesta,Planet,Mass Effect
Tenoth,Planet,Mass Effect
Tentrobiil,Planet,Mass Effect
Terapso,Planet,Mass Effect
Teroshe,Planet,Mass Effect
Terra Nova,Planet,Mass Effect
Teshub,Planet,Mass Effect
Teukria,Planet,Mass Effect
Tevura,Planet,Mass Effect
Thail,Planet,Mass Effect
Tharopto,Planet,Mass Effect
Thegan,Planet,Mass Effect
Thegeuse,Planet,Mass Effect
Themis,Planet,Mass Effect
Thenusi,Planet,Mass Effect
Theonax,Planet,Mass Effect
Therum,Planet,Mass Effect
Therumlon,Planet,Mass Effect
Thesalgon,Planet,Mass Effect
Theshaca,Planet,Mass Effect
Thessia,Planet,Mass Effect
Theyar,Planet,Mass Effect
Thissioni,Planet,Mass Effect
Thooft,Planet,Mass Effect
Thrivaldi,Planet,Mass Effect
Thunawanuro,Planet,Mass Effect
Thurisaz,Planet,Mass Effect
Thy'vernos,Planet,Mass Effect
Tijorana,Planet,Mass Effect
Tiptree,Planet,Mass Effect
Tobonoor,Planet,Mass Effect
Tortuga,Planet,Mass Effect
Tosal Nym,Planet,Mass Effect
Trategos,Planet,Mass Effect
Treagir,Planet,Mass Effect
Trebin,Planet,Mass Effect
Trelyn,Planet,Mass Effect
Tremanre,Planet,Mass Effect
Tremar,Planet,Mass Effect
Treyarmus,Planet,Mass Effect
Trident,Planet,Mass Effect
Trigestis,Planet,Mass Effect
Triginta Petra,Planet,Mass Effect
Trikalon,Planet,Mass Effect
Triodia,Planet,Mass Effect
Tritogenith,Planet,Mass Effect
Trobror,Planet,Mass Effect
Tuchanka,Planet,Mass Effect
Tula,Planet,Mass Effect
Tunfigel,Planet,Mass Effect
Tungel,Planet,Mass Effect
Tunharaset,Planet,Mass Effect
Tunshagon,Planet,Mass Effect
Tuntau,Planet,Mass Effect
Turvess,Planet,Mass Effect
Tyfrondra,Planet,Mass Effect
Tyr,Planet,Mass Effect
Tyre,Planet,Mass Effect
Uranus,Planet,Mass Effect
Urdak,Planet,Mass Effect
Uriyah,Planet,Mass Effect
Urmola,Planet,Mass Effect
Uruz,Planet,Mass Effect
Utha,Planet,Mass Effect
Utukku,Planet,Mass Effect
Uwan Oche,Planet,Mass Effect
Uza,Planet,Mass Effect
Kriseroi,Planet,Mass Effect
Malgus,Planet,Mass Effect
Vael,Planet,Mass Effect
Vana,Planet,Mass Effect
Vard,Planet,Mass Effect
Varmalus,Planet,Mass Effect
Vatar,Planet,Mass Effect
Vaul,Planet,Mass Effect
Vebinok,Planet,Mass Effect
Vecchio,Planet,Mass Effect
Vectra,Planet,Mass Effect
Veles,Planet,Mass Effect
Veltman,Planet,Mass Effect
Vem Osca,Planet,Mass Effect
Vemal,Planet,Mass Effect
Venture,Planet,Mass Effect
Venus,Planet,Mass Effect
Verush,Planet,Mass Effect
Veyaria,Planet,Mass Effect
Viantel,Planet,Mass Effect
Vinland,Planet,Mass Effect
Vinvaiko,Planet,Mass Effect
Vioresa,Planet,Mass Effect
Vir,Planet,Mass Effect
Virmire,Planet,Mass Effect
Voeld,Planet,Mass Effect
Volkov,Planet,Mass Effect
Volturno,Planet,Mass Effect
Vylius,Planet,Mass Effect
Wallace,Planet,Mass Effect
Waoge,Planet,Mass Effect
Watchman,Planet,Mass Effect
Watson,Planet,Mass Effect
Welm Urun,Planet,Mass Effect
Wenrum,Planet,Mass Effect
Wentania,Planet,Mass Effect
Werius,Planet,Mass Effect
Wermani,Planet,Mass Effect
Wheeler,Planet,Mass Effect
Wrill,Planet,Mass Effect
Wuo,Planet,Mass Effect
Xamarri,Planet,Mass Effect
Xanadu,Planet,Mass Effect
Xathorron,Planet,Mass Effect
Xawin,Planet,Mass Effect
Xerceo,Planet,Mass Effect
Xetic,Planet,Mass Effect
Yamm,Planet,Mass Effect
Yan Tao,Planet,Mass Effect
Yandoa,Planet,Mass Effect
Yasilium,Planet,Mass Effect
Yukawa,Planet,Mass Effect
Yunaca,Planet,Mass Effect
Yunthorl,Planet,Mass Effect
Zada Ban,Planet,Mass Effect
Zafe,Planet,Mass Effect
Zaherux,Planet,Mass Effect
Zahni,Planet,Mass Effect
Zakros,Planet,Mass Effect
Zanethu,Planet,Mass Effect
Zatorus,Planet,Mass Effect
Zayarter,Planet,Mass Effect
Zeona,Planet,Mass Effect
Zesmeni,Planet,Mass Effect
Zeth,Planet,Mass Effect
Zion,Planet,Mass Effect
Zirnitra,Planet,Mass Effect
Zorya,Planet,Mass Effect
Zosteros,Planet,Mass Effect
Zylium,Planet,Mass Effect
Alseta,Diety,Pathfinder
Zyphus,Diety,Pathfinder
Lamashtu,Diety,Pathfinder
Dahak,Diety,Pathfinder
Qi Zhong,Diety,Pathfinder
Findeladlara,Diety,Pathfinder
Achaekek,Diety,Pathfinder
Grundinnar,Diety,Pathfinder
Yaezhing,Diety,Pathfinder
Folgrit,Diety,Pathfinder
Apsu,Diety,Pathfinder
Iomedae,Diety,Pathfinder
Urgathoa,Diety,Pathfinder
Droskar,Diety,Pathfinder
Zarongel,Diety,Pathfinder
Gorum,Diety,Pathfinder
Kofusachi,Diety,Pathfinder
Hanspur,Diety,Pathfinder
Nethys,Diety,Pathfinder
Lissala,Diety,Pathfinder
Dranngvit,Diety,Pathfinder
Besmara,Diety,Pathfinder
Milani,Diety,Pathfinder
Nivi Rhombodazzle,Diety,Pathfinder
Suyuddha,Diety,Pathfinder
Gyronna,Diety,Pathfinder
Bolka,Diety,Pathfinder
Magrim,Diety,Pathfinder
Desna,Diety,Pathfinder
Kurgess,Diety,Pathfinder
Asmodeus,Diety,Pathfinder
Zogmugot,Diety,Pathfinder
Gozreh,Diety,Pathfinder
Peacock Spirit,Diety,Pathfinder
Ydersius,Diety,Pathfinder
Hadregash,Diety,Pathfinder
Camazotz,Diety,Pathfinder
Azathoth,Diety,Pathfinder
Shizuru,Diety,Pathfinder
General Susumu,Diety,Pathfinder
Urazra,Diety,Pathfinder
Angradd,Diety,Pathfinder
Fandarra,Diety,Pathfinder
Sivanah,Diety,Pathfinder
Fumeiyoshi,Diety,Pathfinder
Naderi,Diety,Pathfinder
Kols,Diety,Pathfinder
Cayden Cailean,Diety,Pathfinder
Yuelral,Diety,Pathfinder
Brigh,Diety,Pathfinder
Ghlaunder,Diety,Pathfinder
Nalinivati,Diety,Pathfinder
Yamatsumi,Diety,Pathfinder
Aroden,Diety,Pathfinder
Norgorber,Diety,Pathfinder
Daikitsu,Diety,Pathfinder
Sun Wukong,Diety,Pathfinder
Erastil,Diety,Pathfinder
Thremyr,Diety,Pathfinder
Irori,Diety,Pathfinder
Chaldira Zuzaristan,Diety,Pathfinder
Calistria,Diety,Pathfinder
Zon-Kuthon,Diety,Pathfinder
Pharasma,Diety,Pathfinder
Lao Shu Po,Diety,Pathfinder
Rovagug,Diety,Pathfinder
Lady Nanyo,Diety,Pathfinder
Haggakal,Diety,Pathfinder
Trudd,Diety,Pathfinder
Groetus,Diety,Pathfinder
Chamidu,Diety,Pathfinder
Ketephys,Diety,Pathfinder
Zursvaater,Diety,Pathfinder
Abadar,Diety,Pathfinder
Hei Feng,Diety,Pathfinder
Sarenrae,Diety,Pathfinder
Shelyn,Diety,Pathfinder
Torag,Diety,Pathfinder
Thamir,Diety,Pathfinder
Tsukiyo,Diety,Pathfinder
Venkelvore,Diety,Pathfinder
Minderhal,Diety,Pathfinder
Auril,Diety,D&D
Azuth,Diety,D&D
Bane,Diety,D&D
Beshaba,Diety,D&D
Bhaal,Diety,D&D
Chauntea,Diety,D&D
Cyric,Diety,D&D
Deneir,Diety,D&D
Eldath,Diety,D&D
Gond,Diety,D&D
Helm,Diety,D&D
Ilmater,Diety,D&D
Kelemvor,Diety,D&D
Lathander,Diety,D&D
Leira,Diety,D&D
Lliira,Diety,D&D
Loviatar,Diety,D&D
Malar,Diety,D&D
Mask,Diety,D&D
Mielikki,Diety,D&D
Milil,Diety,D&D
Myrkul,Diety,D&D
Mystra,Diety,D&D
Oghma,Diety,D&D
Savras,Diety,D&D
Selûne,Diety,D&D
Shar,Diety,D&D
Silvanus,Diety,D&D
Sune,Diety,D&D
Talona,Diety,D&D
Talos,Diety,D&D
Tempus,Diety,D&D
Torm,Diety,D&D
Tymora,Diety,D&D
Tyr,Diety,D&D
Umberlee,Diety,D&D
Waukeen,Diety,D&D
Beory,Diety,D&D
Boccob,Diety,D&D
Celestian,Diety,D&D
Ehlonna,Diety,D&D
Erythnul,Diety,D&D
Fharlanghn,Diety,D&D
Heironeous,Diety,D&D
Hextor,Diety,D&D
Kord,Diety,D&D
Incabulos,Diety,D&D
Istus,Diety,D&D
Iuz,Diety,D&D
Nerull,Diety,D&D
Obad-Hai,Diety,D&D
Olidammara,Diety,D&D
Pelor,Diety,D&D
Pholtus,Diety,D&D
Ralishaz,Diety,D&D
Rao,Diety,D&D
Saint Cuthbert,Diety,D&D
Tharizdun,Diety,D&D
Trithereon,Diety,D&D
Ulaa,Diety,D&D
Vecna,Diety,D&D
Wee Jas,Diety,D&D
Arawai,Diety,D&D
Aureon,Diety,D&D
Balinor,Diety,D&D
Boldrei,Diety,D&D
Dol Arrah,Diety,D&D
Dol Dorn,Diety,D&D
Kol Korran,Diety,D&D
Ollandra,Diety,D&D
Onatar,Diety,D&D
The Devourer,Diety,D&D
The Fury,Diety,D&D
The Keeper,Diety,D&D
The Mockery,Diety,D&D
The Shadow,Diety,D&D
The Traveler,Diety,D&D
The Silver Flame,Diety,D&D
The Blood of Vol,Diety,D&D
Cults of the Dragon Below,Diety,D&D
The Path of Light,Diety,D&D
The Undying Court,Diety,D&D
The Spirits of the Past,Diety,D&D
Bahamut,Diety,D&D
Blibdoolpoolp,Diety,D&D
Corellon Larethian,Diety,D&D
Deep Sashelas,Diety,D&D
Eadro,Diety,D&D
Garl Glittergold,Diety,D&D
Grolantor,Diety,D&D
Gruumsh,Diety,D&D
Hruggek,Diety,D&D
Kutrulmak,Diety,D&D
Laogzed,Diety,D&D
Lolth,Diety,D&D
Maglubiyet,Diety,D&D
Moradin,Diety,D&D
Rilifane Rallathil,Diety,D&D
Sehanine Moonbow,Diety,D&D
Sekolah,Diety,D&D
Semuanya,Diety,D&D
Skerrit,Diety,D&D
Skoraeus Stonebones,Diety,D&D
Surtur,Diety,D&D
Thrym,Diety,D&D
Tiamat,Diety,D&D
Yondalla,Diety,D&D
Eh-phwa,Diety,Mine
